<?xml version="1.0" encoding="UTF-8"?>
<svg xmlns="http://www.w3.org/2000/svg" xmlns:xlink="http://www.w3.org/1999/xlink" width="201.765" height="208.925" viewBox="0 0 201.765 208.925">
<defs>
<g>
<g id="glyph-0-0">
<path d="M 9.40625 -6.03125 C 9.40625 -6.0625 9.359375 -6.125 9.296875 -6.125 C 9.078125 -6.125 8.828125 -6.09375 8.59375 -6.09375 C 8.296875 -6.09375 7.96875 -6.125 7.671875 -6.125 C 7.609375 -6.125 7.5 -6.125 7.5 -5.953125 C 7.5 -5.859375 7.578125 -5.84375 7.625 -5.84375 C 7.84375 -5.84375 8.15625 -5.765625 8.15625 -5.5 C 8.15625 -5.40625 8.109375 -5.328125 8.046875 -5.203125 L 5.625 -0.984375 L 5.296875 -5.421875 C 5.28125 -5.609375 5.265625 -5.84375 5.921875 -5.84375 C 6.078125 -5.84375 6.15625 -5.84375 6.15625 -6.03125 C 6.15625 -6.109375 6.0625 -6.125 6.03125 -6.125 C 5.671875 -6.125 5.296875 -6.09375 4.9375 -6.09375 C 4.734375 -6.09375 4.203125 -6.125 3.984375 -6.125 C 3.9375 -6.125 3.828125 -6.125 3.828125 -5.953125 C 3.828125 -5.84375 3.90625 -5.84375 4.03125 -5.84375 C 4.4375 -5.84375 4.5 -5.796875 4.515625 -5.625 L 4.5625 -4.9375 L 2.296875 -0.984375 L 1.953125 -5.53125 C 1.953125 -5.625 1.953125 -5.84375 2.640625 -5.84375 C 2.71875 -5.84375 2.828125 -5.84375 2.828125 -6.03125 C 2.828125 -6.125 2.703125 -6.125 2.703125 -6.125 C 2.34375 -6.125 1.96875 -6.09375 1.59375 -6.09375 C 1.28125 -6.09375 0.953125 -6.125 0.65625 -6.125 C 0.609375 -6.125 0.5 -6.125 0.5 -5.953125 C 0.5 -5.84375 0.578125 -5.84375 0.71875 -5.84375 C 1.171875 -5.84375 1.171875 -5.765625 1.1875 -5.515625 L 1.59375 -0.03125 C 1.609375 0.125 1.609375 0.203125 1.734375 0.203125 C 1.84375 0.203125 1.875 0.140625 1.953125 0.015625 L 4.59375 -4.5625 L 4.921875 -0.03125 C 4.9375 0.15625 4.953125 0.203125 5.0625 0.203125 C 5.1875 0.203125 5.234375 0.109375 5.28125 0.03125 L 8.21875 -5.078125 C 8.453125 -5.484375 8.65625 -5.796875 9.234375 -5.84375 C 9.3125 -5.859375 9.40625 -5.859375 9.40625 -6.03125 Z M 9.40625 -6.03125 "/>
</g>
<g id="glyph-0-1">
<path d="M 7.625 -3.109375 C 7.625 -3.203125 7.546875 -3.296875 7.4375 -3.296875 L 2.78125 -3.296875 C 2.6875 -3.296875 2.59375 -3.203125 2.59375 -3.109375 C 2.59375 -3.015625 2.6875 -2.9375 2.78125 -2.9375 L 7.4375 -2.9375 C 7.546875 -2.9375 7.625 -3.015625 7.625 -3.109375 Z M 7.625 -1.375 C 7.625 -1.46875 7.546875 -1.546875 7.4375 -1.546875 L 2.78125 -1.546875 C 2.6875 -1.546875 2.59375 -1.46875 2.59375 -1.375 C 2.59375 -1.28125 2.6875 -1.1875 2.78125 -1.1875 L 7.4375 -1.1875 C 7.546875 -1.1875 7.625 -1.28125 7.625 -1.375 Z M 1.453125 -3.3125 C 1.453125 -3.5625 1.234375 -3.78125 0.984375 -3.78125 C 0.71875 -3.78125 0.5 -3.5625 0.5 -3.3125 C 0.5 -3.046875 0.71875 -2.828125 0.984375 -2.828125 C 1.234375 -2.828125 1.453125 -3.046875 1.453125 -3.3125 Z M 1.453125 -1.171875 C 1.453125 -1.4375 1.234375 -1.65625 0.984375 -1.65625 C 0.71875 -1.65625 0.5 -1.4375 0.5 -1.171875 C 0.5 -0.921875 0.71875 -0.703125 0.984375 -0.703125 C 1.234375 -0.703125 1.453125 -0.921875 1.453125 -1.171875 Z M 1.453125 -1.171875 "/>
</g>
<g id="glyph-0-2">
<path d="M 3.765625 0 L 3.765625 -0.28125 L 3.46875 -0.28125 C 2.65625 -0.28125 2.640625 -0.375 2.640625 -0.703125 L 2.640625 -5.734375 C 2.640625 -5.953125 2.640625 -5.96875 2.4375 -5.96875 C 1.875 -5.40625 1.078125 -5.40625 0.796875 -5.40625 L 0.796875 -5.125 C 0.984375 -5.125 1.5 -5.125 1.96875 -5.359375 L 1.96875 -0.703125 C 1.96875 -0.390625 1.953125 -0.28125 1.140625 -0.28125 L 0.859375 -0.28125 L 0.859375 0 C 1.171875 -0.03125 1.953125 -0.03125 2.3125 -0.03125 C 2.65625 -0.03125 3.4375 -0.03125 3.765625 0 Z M 3.765625 0 "/>
</g>
<g id="glyph-0-3">
<path d="M 7.90625 -6.03125 C 7.90625 -6.125 7.796875 -6.125 7.78125 -6.125 L 6.625 -6.09375 L 5.46875 -6.125 C 5.40625 -6.125 5.296875 -6.125 5.296875 -5.953125 C 5.296875 -5.84375 5.375 -5.84375 5.546875 -5.84375 C 5.546875 -5.84375 5.734375 -5.84375 5.890625 -5.828125 C 6.046875 -5.8125 6.140625 -5.796875 6.140625 -5.6875 C 6.140625 -5.65625 6.125 -5.625 6.09375 -5.515625 L 5.5625 -3.328125 L 2.828125 -3.328125 L 3.359375 -5.4375 C 3.4375 -5.765625 3.46875 -5.84375 4.109375 -5.84375 C 4.34375 -5.84375 4.40625 -5.84375 4.40625 -6.03125 C 4.40625 -6.125 4.3125 -6.125 4.28125 -6.125 L 3.140625 -6.09375 L 1.984375 -6.125 C 1.90625 -6.125 1.8125 -6.125 1.8125 -5.953125 C 1.8125 -5.84375 1.890625 -5.84375 2.0625 -5.84375 C 2.0625 -5.84375 2.25 -5.84375 2.40625 -5.828125 C 2.5625 -5.8125 2.640625 -5.796875 2.640625 -5.6875 C 2.640625 -5.65625 2.640625 -5.625 2.609375 -5.515625 L 1.40625 -0.703125 C 1.3125 -0.34375 1.296875 -0.28125 0.59375 -0.28125 C 0.4375 -0.28125 0.34375 -0.28125 0.34375 -0.09375 C 0.34375 0 0.46875 0 0.46875 0 L 1.609375 -0.03125 L 2.1875 -0.015625 C 2.390625 -0.015625 2.578125 0 2.765625 0 C 2.84375 0 2.953125 0 2.953125 -0.171875 C 2.953125 -0.28125 2.875 -0.28125 2.703125 -0.28125 C 2.375 -0.28125 2.109375 -0.28125 2.109375 -0.4375 C 2.109375 -0.5 2.140625 -0.53125 2.140625 -0.59375 L 2.75 -3.046875 L 5.484375 -3.046875 L 4.875 -0.578125 C 4.78125 -0.28125 4.609375 -0.28125 4.046875 -0.28125 C 3.921875 -0.28125 3.84375 -0.28125 3.84375 -0.09375 C 3.84375 0 3.96875 0 3.96875 0 L 5.109375 -0.03125 L 5.671875 -0.015625 C 5.875 -0.015625 6.078125 0 6.265625 0 C 6.328125 0 6.4375 0 6.4375 -0.171875 C 6.4375 -0.28125 6.359375 -0.28125 6.1875 -0.28125 C 5.859375 -0.28125 5.609375 -0.28125 5.609375 -0.4375 C 5.609375 -0.5 5.625 -0.53125 5.625 -0.59375 L 6.84375 -5.4375 C 6.921875 -5.765625 6.9375 -5.84375 7.59375 -5.84375 C 7.828125 -5.84375 7.90625 -5.84375 7.90625 -6.03125 Z M 7.90625 -6.03125 "/>
</g>
<g id="glyph-0-4">
<path d="M 3.859375 -0.953125 C 3.859375 -1.015625 3.796875 -1.078125 3.75 -1.078125 C 3.703125 -1.078125 3.6875 -1.0625 3.625 -0.984375 C 2.921875 -0.09375 1.953125 -0.09375 1.84375 -0.09375 C 1.140625 -0.09375 1.0625 -0.859375 1.0625 -1.140625 C 1.0625 -1.25 1.0625 -1.53125 1.203125 -2.078125 L 1.671875 -2.078125 C 1.9375 -2.078125 2.59375 -2.09375 3.046875 -2.28125 C 3.671875 -2.546875 3.71875 -3.078125 3.71875 -3.203125 C 3.71875 -3.59375 3.375 -3.96875 2.765625 -3.96875 C 1.765625 -3.96875 0.40625 -3.09375 0.40625 -1.53125 C 0.40625 -0.609375 0.9375 0.09375 1.828125 0.09375 C 3.109375 0.09375 3.859375 -0.859375 3.859375 -0.953125 Z M 3.421875 -3.203125 C 3.421875 -2.265625 1.984375 -2.265625 1.625 -2.265625 L 1.25 -2.265625 C 1.609375 -3.625 2.53125 -3.765625 2.765625 -3.765625 C 3.1875 -3.765625 3.421875 -3.5 3.421875 -3.203125 Z M 3.421875 -3.203125 "/>
</g>
<g id="glyph-0-5">
<path d="M 6.84375 -5.859375 C 6.875 -6.09375 6.828125 -6.09375 6.59375 -6.09375 L 2.078125 -6.09375 C 1.890625 -6.09375 1.796875 -6.09375 1.796875 -5.921875 C 1.796875 -5.828125 1.890625 -5.828125 2.046875 -5.828125 C 2.390625 -5.828125 2.640625 -5.828125 2.640625 -5.65625 C 2.640625 -5.625 2.640625 -5.609375 2.59375 -5.4375 L 1.40625 -0.703125 C 1.3125 -0.34375 1.296875 -0.28125 0.59375 -0.28125 C 0.4375 -0.28125 0.34375 -0.28125 0.34375 -0.109375 C 0.34375 0 0.421875 0 0.59375 0 L 5.25 0 C 5.453125 0 5.46875 -0.015625 5.53125 -0.15625 L 6.34375 -2.09375 C 6.375 -2.140625 6.390625 -2.21875 6.390625 -2.21875 C 6.390625 -2.21875 6.390625 -2.3125 6.28125 -2.3125 C 6.203125 -2.3125 6.1875 -2.265625 6.171875 -2.203125 C 5.59375 -0.875 5.25 -0.28125 3.71875 -0.28125 L 2.40625 -0.28125 C 2.28125 -0.28125 2.265625 -0.28125 2.21875 -0.28125 C 2.125 -0.296875 2.09375 -0.3125 2.09375 -0.375 C 2.09375 -0.40625 2.09375 -0.421875 2.140625 -0.578125 L 2.75 -3.03125 L 3.640625 -3.03125 C 4.40625 -3.03125 4.40625 -2.84375 4.40625 -2.625 C 4.40625 -2.5625 4.40625 -2.453125 4.34375 -2.171875 C 4.328125 -2.140625 4.3125 -2.109375 4.3125 -2.078125 C 4.3125 -2.03125 4.34375 -1.984375 4.4375 -1.984375 C 4.5 -1.984375 4.53125 -2.03125 4.5625 -2.15625 L 5.078125 -4.265625 C 5.078125 -4.3125 5.03125 -4.359375 4.96875 -4.359375 C 4.890625 -4.359375 4.875 -4.3125 4.84375 -4.203125 C 4.65625 -3.515625 4.5 -3.3125 3.671875 -3.3125 L 2.828125 -3.3125 L 3.359375 -5.46875 C 3.4375 -5.78125 3.453125 -5.828125 3.84375 -5.828125 L 5.109375 -5.828125 C 6.203125 -5.828125 6.46875 -5.5625 6.46875 -4.828125 C 6.46875 -4.609375 6.46875 -4.59375 6.4375 -4.34375 C 6.4375 -4.296875 6.4375 -4.234375 6.4375 -4.1875 C 6.4375 -4.140625 6.453125 -4.078125 6.53125 -4.078125 C 6.640625 -4.078125 6.640625 -4.140625 6.65625 -4.3125 Z M 6.84375 -5.859375 "/>
</g>
<g id="glyph-0-6">
<path d="M 4.953125 -5.703125 C 4.953125 -6.109375 4.53125 -6.328125 4.171875 -6.328125 C 3.859375 -6.328125 3.296875 -6.15625 3.03125 -5.28125 C 2.984375 -5.078125 2.953125 -5 2.734375 -3.859375 L 2.109375 -3.859375 C 1.953125 -3.859375 1.84375 -3.859375 1.84375 -3.6875 C 1.84375 -3.59375 1.921875 -3.59375 2.09375 -3.59375 L 2.6875 -3.59375 L 2.015625 -0.046875 C 1.859375 0.828125 1.703125 1.640625 1.234375 1.640625 C 1.203125 1.640625 0.984375 1.640625 0.8125 1.484375 C 1.21875 1.453125 1.296875 1.125 1.296875 1 C 1.296875 0.796875 1.140625 0.6875 0.96875 0.6875 C 0.734375 0.6875 0.46875 0.875 0.46875 1.21875 C 0.46875 1.625 0.875 1.84375 1.234375 1.84375 C 1.734375 1.84375 2.09375 1.3125 2.25 0.96875 C 2.53125 0.40625 2.75 -0.6875 2.75 -0.75 L 3.296875 -3.59375 L 4.0625 -3.59375 C 4.25 -3.59375 4.328125 -3.59375 4.328125 -3.765625 C 4.328125 -3.859375 4.25 -3.859375 4.09375 -3.859375 L 3.34375 -3.859375 C 3.4375 -4.390625 3.4375 -4.375 3.53125 -4.890625 C 3.5625 -5.078125 3.6875 -5.71875 3.75 -5.828125 C 3.828125 -5.984375 3.984375 -6.125 4.171875 -6.125 C 4.203125 -6.125 4.4375 -6.125 4.609375 -5.96875 C 4.21875 -5.921875 4.125 -5.609375 4.125 -5.484375 C 4.125 -5.28125 4.28125 -5.171875 4.453125 -5.171875 C 4.6875 -5.171875 4.953125 -5.359375 4.953125 -5.703125 Z M 4.953125 -5.703125 "/>
</g>
<g id="glyph-0-7">
<path d="M 4.453125 -6.015625 C 4.453125 -6.125 4.359375 -6.125 4.328125 -6.125 L 3.140625 -6.09375 L 1.953125 -6.125 C 1.890625 -6.125 1.765625 -6.125 1.765625 -5.953125 C 1.765625 -5.84375 1.84375 -5.84375 2.015625 -5.84375 C 2.390625 -5.84375 2.640625 -5.84375 2.640625 -5.671875 C 2.640625 -5.625 2.640625 -5.609375 2.625 -5.53125 L 1.40625 -0.703125 C 1.328125 -0.375 1.296875 -0.28125 0.59375 -0.28125 C 0.390625 -0.28125 0.3125 -0.28125 0.3125 -0.09375 C 0.3125 0 0.40625 0 0.4375 0 L 1.609375 -0.03125 L 2.8125 0 C 2.890625 0 3 0 3 -0.171875 C 3 -0.28125 2.921875 -0.28125 2.71875 -0.28125 C 2.5625 -0.28125 2.515625 -0.28125 2.34375 -0.296875 C 2.15625 -0.3125 2.109375 -0.34375 2.109375 -0.453125 C 2.109375 -0.515625 2.140625 -0.59375 2.15625 -0.65625 L 3.359375 -5.4375 C 3.4375 -5.765625 3.46875 -5.84375 4.171875 -5.84375 C 4.390625 -5.84375 4.453125 -5.84375 4.453125 -6.015625 Z M 4.453125 -6.015625 "/>
</g>
<g id="glyph-0-8">
<path d="M 2.546875 -5.609375 C 2.546875 -5.78125 2.421875 -5.921875 2.21875 -5.921875 C 1.96875 -5.921875 1.734375 -5.6875 1.734375 -5.453125 C 1.734375 -5.28125 1.859375 -5.125 2.078125 -5.125 C 2.28125 -5.125 2.546875 -5.34375 2.546875 -5.609375 Z M 2.625 -1.28125 C 2.625 -1.375 2.546875 -1.375 2.515625 -1.375 C 2.4375 -1.375 2.4375 -1.34375 2.390625 -1.203125 C 2.21875 -0.640625 1.921875 -0.09375 1.46875 -0.09375 C 1.3125 -0.09375 1.25 -0.1875 1.25 -0.390625 C 1.25 -0.625 1.3125 -0.75 1.515625 -1.296875 L 1.859375 -2.234375 C 1.96875 -2.5 1.96875 -2.515625 2.0625 -2.75 C 2.140625 -2.9375 2.171875 -3.0625 2.171875 -3.234375 C 2.171875 -3.625 1.890625 -3.96875 1.4375 -3.96875 C 0.59375 -3.96875 0.265625 -2.65625 0.265625 -2.578125 C 0.265625 -2.5 0.375 -2.5 0.375 -2.5 C 0.453125 -2.5 0.46875 -2.515625 0.515625 -2.65625 C 0.75 -3.5 1.109375 -3.765625 1.421875 -3.765625 C 1.484375 -3.765625 1.640625 -3.765625 1.640625 -3.484375 C 1.640625 -3.296875 1.578125 -3.109375 1.546875 -3.015625 C 1.46875 -2.78125 1.0625 -1.734375 0.921875 -1.359375 C 0.828125 -1.125 0.71875 -0.828125 0.71875 -0.640625 C 0.71875 -0.21875 1.015625 0.09375 1.453125 0.09375 C 2.296875 0.09375 2.625 -1.203125 2.625 -1.28125 Z M 2.625 -1.28125 "/>
</g>
<g id="glyph-0-9">
<path d="M 4.390625 -2.53125 C 4.390625 -3.375 3.890625 -3.96875 3.203125 -3.96875 C 2.75 -3.96875 2.328125 -3.640625 2.03125 -3.296875 C 1.9375 -3.78125 1.546875 -3.96875 1.21875 -3.96875 C 0.8125 -3.96875 0.640625 -3.609375 0.5625 -3.453125 C 0.390625 -3.140625 0.28125 -2.609375 0.28125 -2.578125 C 0.28125 -2.5 0.390625 -2.5 0.390625 -2.5 C 0.46875 -2.5 0.484375 -2.5 0.53125 -2.703125 C 0.6875 -3.34375 0.875 -3.765625 1.1875 -3.765625 C 1.34375 -3.765625 1.46875 -3.6875 1.46875 -3.359375 C 1.46875 -3.140625 1.4375 -3.046875 1.40625 -2.890625 L 0.40625 1.09375 C 0.328125 1.40625 0.3125 1.46875 -0.078125 1.46875 C -0.1875 1.46875 -0.28125 1.46875 -0.28125 1.625 C -0.28125 1.703125 -0.234375 1.734375 -0.171875 1.734375 C 0.078125 1.734375 0.328125 1.71875 0.578125 1.71875 C 0.875 1.71875 1.1875 1.734375 1.46875 1.734375 C 1.515625 1.734375 1.625 1.734375 1.625 1.5625 C 1.625 1.46875 1.546875 1.46875 1.421875 1.46875 C 0.96875 1.46875 0.96875 1.40625 0.96875 1.3125 C 0.96875 1.203125 1.34375 -0.25 1.40625 -0.46875 C 1.53125 -0.21875 1.78125 0.09375 2.234375 0.09375 C 3.28125 0.09375 4.390625 -1.203125 4.390625 -2.53125 Z M 3.75 -2.921875 C 3.75 -2.390625 3.453125 -1.359375 3.296875 -1.015625 C 2.984375 -0.390625 2.5625 -0.09375 2.21875 -0.09375 C 1.625 -0.09375 1.515625 -0.84375 1.515625 -0.890625 C 1.515625 -0.890625 1.515625 -0.9375 1.546875 -1.046875 L 1.984375 -2.796875 C 2.046875 -3.046875 2.28125 -3.296875 2.453125 -3.421875 C 2.765625 -3.703125 3.015625 -3.765625 3.171875 -3.765625 C 3.53125 -3.765625 3.75 -3.453125 3.75 -2.921875 Z M 3.75 -2.921875 "/>
</g>
<g id="glyph-0-10">
<path d="M 3.90625 -3.375 C 3.90625 -3.6875 3.625 -3.96875 3.171875 -3.96875 C 2.578125 -3.96875 2.1875 -3.53125 2.015625 -3.28125 C 1.953125 -3.671875 1.625 -3.96875 1.203125 -3.96875 C 0.796875 -3.96875 0.625 -3.609375 0.53125 -3.453125 C 0.375 -3.140625 0.265625 -2.609375 0.265625 -2.578125 C 0.265625 -2.5 0.375 -2.5 0.375 -2.5 C 0.453125 -2.5 0.46875 -2.5 0.515625 -2.703125 C 0.671875 -3.34375 0.859375 -3.765625 1.171875 -3.765625 C 1.328125 -3.765625 1.453125 -3.6875 1.453125 -3.359375 C 1.453125 -3.171875 1.421875 -3.0625 1.3125 -2.59375 L 0.796875 -0.53125 C 0.765625 -0.390625 0.703125 -0.1875 0.703125 -0.140625 C 0.703125 0.015625 0.828125 0.09375 0.96875 0.09375 C 1.078125 0.09375 1.234375 0.03125 1.296875 -0.15625 C 1.3125 -0.1875 1.625 -1.40625 1.65625 -1.5625 L 1.953125 -2.734375 C 1.984375 -2.859375 2.234375 -3.28125 2.453125 -3.46875 C 2.515625 -3.53125 2.78125 -3.765625 3.171875 -3.765625 C 3.40625 -3.765625 3.546875 -3.65625 3.546875 -3.65625 C 3.28125 -3.609375 3.078125 -3.40625 3.078125 -3.171875 C 3.078125 -3.015625 3.171875 -2.859375 3.421875 -2.859375 C 3.65625 -2.859375 3.90625 -3.0625 3.90625 -3.375 Z M 3.90625 -3.375 "/>
</g>
<g id="glyph-0-11">
<path d="M 4.078125 -4.484375 C 4.078125 -5.078125 3.921875 -6.328125 3 -6.328125 C 1.765625 -6.328125 0.375 -3.796875 0.375 -1.734375 C 0.375 -0.890625 0.640625 0.09375 1.453125 0.09375 C 2.71875 0.09375 4.078125 -2.46875 4.078125 -4.484375 Z M 3.484375 -5.046875 C 3.484375 -4.59375 3.421875 -4.140625 3.203125 -3.25 L 1.328125 -3.25 C 1.484375 -3.828125 1.65625 -4.546875 2.015625 -5.1875 C 2.265625 -5.625 2.59375 -6.125 3 -6.125 C 3.4375 -6.125 3.484375 -5.546875 3.484375 -5.046875 Z M 3.125 -2.96875 C 3.015625 -2.5625 2.828125 -1.796875 2.5 -1.140625 C 2.171875 -0.53125 1.84375 -0.09375 1.453125 -0.09375 C 1.15625 -0.09375 0.96875 -0.359375 0.96875 -1.1875 C 0.96875 -1.5625 1.015625 -2.09375 1.25 -2.96875 Z M 3.125 -2.96875 "/>
</g>
<g id="glyph-1-0">
<path d="M 3.203125 -4 C 3.203125 -4.046875 3.171875 -4.09375 3.109375 -4.09375 C 2.984375 -4.09375 2.84375 -4.0625 2.703125 -4.0625 L 1.890625 -4.0625 C 1.765625 -4.0625 1.609375 -4.09375 1.484375 -4.09375 C 1.4375 -4.09375 1.359375 -4.09375 1.359375 -3.953125 C 1.359375 -3.875 1.421875 -3.875 1.546875 -3.875 C 1.546875 -3.875 1.671875 -3.875 1.78125 -3.859375 C 1.890625 -3.84375 1.9375 -3.84375 1.9375 -3.78125 C 1.9375 -3.734375 1.921875 -3.703125 1.921875 -3.65625 L 1.125 -0.46875 C 1.078125 -0.28125 1.046875 -0.21875 0.609375 -0.21875 C 0.4375 -0.21875 0.390625 -0.21875 0.390625 -0.078125 C 0.390625 -0.078125 0.390625 0 0.484375 0 C 0.65625 0 1.109375 -0.03125 1.28125 -0.03125 L 1.703125 -0.015625 C 1.828125 -0.015625 1.984375 0 2.109375 0 C 2.140625 0 2.234375 0 2.234375 -0.125 C 2.234375 -0.21875 2.171875 -0.21875 2.046875 -0.21875 C 2.046875 -0.21875 1.90625 -0.21875 1.796875 -0.234375 C 1.65625 -0.234375 1.65625 -0.265625 1.65625 -0.3125 C 1.65625 -0.3125 1.65625 -0.359375 1.671875 -0.453125 L 2.46875 -3.609375 C 2.53125 -3.8125 2.53125 -3.875 2.984375 -3.875 C 3.140625 -3.875 3.203125 -3.875 3.203125 -4 Z M 3.203125 -4 "/>
</g>
<g id="glyph-1-1">
<path d="M 3.484375 -2.203125 C 3.484375 -2.53125 3.109375 -2.640625 2.859375 -2.640625 C 2.5625 -2.640625 2.328125 -2.4375 2.203125 -2.21875 C 2.09375 -2.453125 1.8125 -2.640625 1.484375 -2.640625 C 0.8125 -2.640625 0.421875 -1.90625 0.421875 -1.71875 C 0.421875 -1.640625 0.515625 -1.640625 0.53125 -1.640625 C 0.609375 -1.640625 0.609375 -1.671875 0.640625 -1.75 C 0.796875 -2.21875 1.171875 -2.46875 1.453125 -2.46875 C 1.65625 -2.46875 1.8125 -2.359375 1.8125 -2.078125 C 1.8125 -1.953125 1.75 -1.65625 1.6875 -1.453125 L 1.484375 -0.640625 C 1.4375 -0.4375 1.234375 -0.109375 0.921875 -0.109375 C 0.90625 -0.109375 0.734375 -0.109375 0.609375 -0.1875 C 0.84375 -0.265625 0.875 -0.484375 0.875 -0.515625 C 0.875 -0.65625 0.765625 -0.734375 0.625 -0.734375 C 0.453125 -0.734375 0.28125 -0.59375 0.28125 -0.375 C 0.28125 -0.078125 0.625 0.0625 0.921875 0.0625 C 1.1875 0.0625 1.4375 -0.109375 1.578125 -0.359375 C 1.734375 -0.046875 2.0625 0.0625 2.296875 0.0625 C 2.984375 0.0625 3.34375 -0.6875 3.34375 -0.859375 C 3.34375 -0.9375 3.265625 -0.9375 3.25 -0.9375 C 3.171875 -0.9375 3.171875 -0.90625 3.140625 -0.828125 C 3.015625 -0.421875 2.65625 -0.109375 2.328125 -0.109375 C 2.078125 -0.109375 1.953125 -0.265625 1.953125 -0.5 C 1.953125 -0.65625 2.09375 -1.203125 2.265625 -1.859375 C 2.390625 -2.328125 2.65625 -2.46875 2.859375 -2.46875 C 2.859375 -2.46875 3.046875 -2.46875 3.171875 -2.390625 C 2.984375 -2.328125 2.921875 -2.171875 2.921875 -2.0625 C 2.921875 -1.921875 3.015625 -1.84375 3.15625 -1.84375 C 3.296875 -1.84375 3.484375 -1.953125 3.484375 -2.203125 Z M 3.484375 -2.203125 "/>
</g>
<g id="glyph-1-2">
<path d="M 3.34375 -2.390625 C 3.34375 -2.5 3.25 -2.578125 3.15625 -2.578125 C 3.09375 -2.578125 2.96875 -2.546875 2.90625 -2.4375 C 2.890625 -2.40625 2.84375 -2.203125 2.8125 -2.09375 L 2.6875 -1.59375 L 2.453125 -0.625 C 2.453125 -0.625 2.171875 -0.109375 1.71875 -0.109375 C 1.296875 -0.109375 1.296875 -0.5 1.296875 -0.609375 C 1.296875 -0.921875 1.4375 -1.296875 1.625 -1.765625 C 1.6875 -1.953125 1.71875 -2.03125 1.71875 -2.125 C 1.71875 -2.421875 1.484375 -2.640625 1.15625 -2.640625 C 0.546875 -2.640625 0.28125 -1.828125 0.28125 -1.71875 C 0.28125 -1.640625 0.359375 -1.640625 0.390625 -1.640625 C 0.46875 -1.640625 0.46875 -1.671875 0.484375 -1.734375 C 0.640625 -2.234375 0.890625 -2.46875 1.140625 -2.46875 C 1.234375 -2.46875 1.28125 -2.40625 1.28125 -2.265625 C 1.28125 -2.125 1.234375 -2 1.203125 -1.921875 C 0.921875 -1.1875 0.859375 -0.96875 0.859375 -0.703125 C 0.859375 -0.59375 0.859375 -0.3125 1.09375 -0.125 C 1.28125 0.03125 1.53125 0.0625 1.6875 0.0625 C 1.921875 0.0625 2.140625 -0.03125 2.34375 -0.203125 C 2.265625 0.125 2.203125 0.375 1.9375 0.671875 C 1.78125 0.859375 1.546875 1.046875 1.234375 1.046875 C 1.1875 1.046875 0.90625 1.046875 0.78125 0.859375 C 1.09375 0.8125 1.09375 0.53125 1.09375 0.53125 C 1.09375 0.328125 0.921875 0.296875 0.875 0.296875 C 0.71875 0.296875 0.515625 0.421875 0.515625 0.6875 C 0.515625 1 0.8125 1.21875 1.234375 1.21875 C 1.84375 1.21875 2.578125 0.75 2.765625 0 L 3.328125 -2.25 C 3.34375 -2.34375 3.34375 -2.359375 3.34375 -2.390625 Z M 3.34375 -2.390625 "/>
</g>
<g id="glyph-1-3">
<path d="M 3.125 -2.5625 C 3.125 -2.640625 3.046875 -2.640625 3.015625 -2.640625 C 2.96875 -2.640625 2.9375 -2.625 2.921875 -2.578125 C 2.734375 -2.296875 2.609375 -2.21875 2.453125 -2.21875 C 2.390625 -2.21875 2.296875 -2.21875 2.125 -2.390625 C 1.921875 -2.59375 1.78125 -2.640625 1.640625 -2.640625 C 1.171875 -2.640625 0.84375 -2.125 0.84375 -1.9375 C 0.84375 -1.890625 0.90625 -1.859375 0.953125 -1.859375 C 1.015625 -1.859375 1.03125 -1.890625 1.046875 -1.953125 C 1.140625 -2.15625 1.484375 -2.171875 1.578125 -2.171875 C 1.71875 -2.171875 1.859375 -2.140625 1.953125 -2.125 C 2.28125 -2.046875 2.328125 -2.046875 2.46875 -2.046875 C 2.3125 -1.890625 2.203125 -1.78125 1.640625 -1.328125 C 1.171875 -0.953125 1.015625 -0.796875 0.890625 -0.6875 C 0.53125 -0.328125 0.359375 -0.0625 0.359375 -0.015625 C 0.359375 0.0625 0.4375 0.0625 0.46875 0.0625 C 0.53125 0.0625 0.53125 0.046875 0.5625 0 C 0.734375 -0.234375 0.921875 -0.359375 1.125 -0.359375 C 1.1875 -0.359375 1.28125 -0.359375 1.4375 -0.203125 C 1.625 -0.03125 1.75 0.0625 1.9375 0.0625 C 2.578125 0.0625 2.984375 -0.671875 2.984375 -0.875 C 2.984375 -0.9375 2.921875 -0.953125 2.875 -0.953125 C 2.8125 -0.953125 2.796875 -0.921875 2.765625 -0.84375 C 2.65625 -0.546875 2.296875 -0.40625 2.015625 -0.40625 C 1.875 -0.40625 1.71875 -0.4375 1.578125 -0.46875 C 1.296875 -0.53125 1.25 -0.53125 1.140625 -0.53125 C 1.140625 -0.53125 1.046875 -0.53125 1 -0.53125 C 1.15625 -0.6875 1.265625 -0.796875 1.78125 -1.203125 C 1.90625 -1.296875 2.359375 -1.65625 2.53125 -1.828125 C 2.890625 -2.1875 3.125 -2.5 3.125 -2.5625 Z M 3.125 -2.5625 "/>
</g>
<g id="glyph-1-4">
<path d="M 2.96875 -0.609375 C 2.96875 -0.65625 2.90625 -0.71875 2.859375 -0.71875 C 2.828125 -0.71875 2.8125 -0.703125 2.765625 -0.65625 C 2.296875 -0.109375 1.59375 -0.109375 1.484375 -0.109375 C 1.0625 -0.109375 0.875 -0.40625 0.875 -0.765625 C 0.875 -0.953125 0.953125 -1.59375 1.265625 -2.015625 C 1.484375 -2.296875 1.796875 -2.46875 2.09375 -2.46875 C 2.1875 -2.46875 2.46875 -2.453125 2.625 -2.296875 C 2.40625 -2.25 2.3125 -2.09375 2.3125 -1.953125 C 2.3125 -1.796875 2.4375 -1.734375 2.546875 -1.734375 C 2.6875 -1.734375 2.890625 -1.828125 2.890625 -2.125 C 2.890625 -2.53125 2.421875 -2.640625 2.09375 -2.640625 C 1.203125 -2.640625 0.375 -1.8125 0.375 -0.984375 C 0.375 -0.46875 0.734375 0.0625 1.484375 0.0625 C 2.484375 0.0625 2.96875 -0.53125 2.96875 -0.609375 Z M 2.96875 -0.609375 "/>
</g>
<g id="glyph-1-5">
<path d="M 3.0625 -2.203125 C 3.0625 -2.515625 2.734375 -2.640625 2.421875 -2.640625 C 2.125 -2.640625 1.84375 -2.515625 1.578125 -2.21875 C 1.484375 -2.578125 1.109375 -2.640625 0.96875 -2.640625 C 0.75 -2.640625 0.59375 -2.5 0.5 -2.328125 C 0.359375 -2.09375 0.28125 -1.75 0.28125 -1.71875 C 0.28125 -1.640625 0.359375 -1.640625 0.390625 -1.640625 C 0.46875 -1.640625 0.46875 -1.65625 0.515625 -1.828125 C 0.609375 -2.1875 0.71875 -2.46875 0.953125 -2.46875 C 1.109375 -2.46875 1.15625 -2.34375 1.15625 -2.171875 C 1.15625 -2.0625 1.09375 -1.84375 1.046875 -1.6875 L 0.921875 -1.140625 L 0.734375 -0.375 C 0.703125 -0.296875 0.671875 -0.15625 0.671875 -0.125 C 0.671875 0 0.78125 0.0625 0.875 0.0625 C 0.96875 0.0625 1.078125 0 1.125 -0.109375 C 1.140625 -0.15625 1.203125 -0.40625 1.25 -0.5625 L 1.40625 -1.203125 C 1.40625 -1.25 1.546875 -1.78125 1.5625 -1.8125 C 1.578125 -1.859375 1.75 -2.15625 1.9375 -2.296875 C 2 -2.359375 2.171875 -2.46875 2.421875 -2.46875 C 2.484375 -2.46875 2.640625 -2.46875 2.75 -2.390625 C 2.5625 -2.328125 2.484375 -2.171875 2.484375 -2.0625 C 2.484375 -1.921875 2.59375 -1.84375 2.734375 -1.84375 C 2.859375 -1.84375 3.0625 -1.953125 3.0625 -2.203125 Z M 3.0625 -2.203125 "/>
</g>
<g id="glyph-1-6">
<path d="M 1.4375 -0.03125 C 1.4375 -0.40625 1.28125 -0.6875 1.015625 -0.6875 C 0.8125 -0.6875 0.671875 -0.53125 0.671875 -0.34375 C 0.671875 -0.15625 0.8125 0 1.015625 0 C 1.15625 0 1.265625 -0.09375 1.265625 -0.09375 C 1.265625 0.234375 1.203125 0.609375 0.796875 1 C 0.765625 1.015625 0.75 1.046875 0.75 1.078125 C 0.75 1.109375 0.796875 1.15625 0.84375 1.15625 C 0.921875 1.15625 1.4375 0.671875 1.4375 -0.03125 Z M 1.4375 -0.03125 "/>
</g>
<g id="glyph-1-7">
<path d="M 3.4375 -4.0625 C 3.4375 -4.09375 3.421875 -4.15625 3.34375 -4.15625 C 3.21875 -4.15625 2.734375 -4.109375 2.578125 -4.09375 C 2.53125 -4.09375 2.453125 -4.078125 2.453125 -3.953125 C 2.453125 -3.875 2.53125 -3.875 2.609375 -3.875 C 2.890625 -3.875 2.890625 -3.828125 2.890625 -3.78125 C 2.890625 -3.734375 2.875 -3.703125 2.859375 -3.65625 L 2.53125 -2.28125 C 2.40625 -2.484375 2.203125 -2.640625 1.90625 -2.640625 C 1.140625 -2.640625 0.359375 -1.796875 0.359375 -0.9375 C 0.359375 -0.359375 0.75 0.0625 1.265625 0.0625 C 1.59375 0.0625 1.875 -0.125 2.125 -0.359375 C 2.234375 0 2.578125 0.0625 2.734375 0.0625 C 2.953125 0.0625 3.09375 -0.078125 3.203125 -0.25 C 3.34375 -0.484375 3.421875 -0.828125 3.421875 -0.859375 C 3.421875 -0.9375 3.34375 -0.9375 3.328125 -0.9375 C 3.234375 -0.9375 3.234375 -0.90625 3.1875 -0.75 C 3.125 -0.453125 3 -0.109375 2.75 -0.109375 C 2.59375 -0.109375 2.5625 -0.234375 2.5625 -0.40625 C 2.5625 -0.515625 2.5625 -0.5625 2.578125 -0.640625 L 3.421875 -3.96875 C 3.421875 -3.984375 3.4375 -4.0625 3.4375 -4.0625 Z M 2.4375 -1.953125 C 2.4375 -1.921875 2.421875 -1.890625 2.421875 -1.859375 L 2.140625 -0.75 C 2.09375 -0.578125 1.96875 -0.453125 1.84375 -0.34375 C 1.78125 -0.296875 1.546875 -0.109375 1.28125 -0.109375 C 1.0625 -0.109375 0.84375 -0.265625 0.84375 -0.6875 C 0.84375 -1 1.015625 -1.65625 1.15625 -1.90625 C 1.4375 -2.375 1.734375 -2.46875 1.90625 -2.46875 C 2.328125 -2.46875 2.4375 -2.015625 2.4375 -1.953125 Z M 2.4375 -1.953125 "/>
</g>
</g>
<clipPath id="clip-0">
<path clip-rule="nonzero" d="M 43 78 L 188 78 L 188 208.925781 L 43 208.925781 Z M 43 78 "/>
</clipPath>
<clipPath id="clip-1">
<path clip-rule="nonzero" d="M 46 12 L 185 12 L 185 208.925781 L 46 208.925781 Z M 46 12 "/>
</clipPath>
</defs>
<path fill="none" stroke-width="0.3985" stroke-linecap="butt" stroke-linejoin="miter" stroke="rgb(75%, 75%, 75%)" stroke-opacity="1" stroke-miterlimit="10" d="M -66.355844 -26.684219 L -66.355844 -2.301406 L -44.238656 -13.727187 " transform="matrix(1, 0, 0, -1, 115.266, 110.515)"/>
<path fill="none" stroke-width="0.3985" stroke-linecap="butt" stroke-linejoin="miter" stroke="rgb(75%, 75%, 75%)" stroke-opacity="1" stroke-miterlimit="10" d="M -66.355844 -2.301406 L -66.355844 22.0775 L -44.238656 10.655625 " transform="matrix(1, 0, 0, -1, 115.266, 110.515)"/>
<path fill="none" stroke-width="0.3985" stroke-linecap="butt" stroke-linejoin="miter" stroke="rgb(75%, 75%, 75%)" stroke-opacity="1" stroke-miterlimit="10" d="M -66.355844 22.0775 L -66.355844 46.460313 L -44.238656 35.038438 " transform="matrix(1, 0, 0, -1, 115.266, 110.515)"/>
<path fill="none" stroke-width="0.3985" stroke-linecap="butt" stroke-linejoin="miter" stroke="rgb(75%, 75%, 75%)" stroke-opacity="1" stroke-miterlimit="10" d="M -66.355844 46.460313 L -66.355844 70.843125 L -44.238656 59.417344 " transform="matrix(1, 0, 0, -1, 115.266, 110.515)"/>
<path fill="none" stroke-width="0.3985" stroke-linecap="butt" stroke-linejoin="miter" stroke="rgb(75%, 75%, 75%)" stroke-opacity="1" stroke-miterlimit="10" d="M -66.355844 70.843125 L -66.355844 95.222031 L -44.238656 83.800156 " transform="matrix(1, 0, 0, -1, 115.266, 110.515)"/>
<path fill="none" stroke-width="0.3985" stroke-linecap="butt" stroke-linejoin="miter" stroke="rgb(75%, 75%, 75%)" stroke-opacity="1" stroke-miterlimit="10" d="M -44.238656 -38.106094 L -44.238656 -13.727187 L -22.117563 -25.149062 " transform="matrix(1, 0, 0, -1, 115.266, 110.515)"/>
<path fill="none" stroke-width="0.3985" stroke-linecap="butt" stroke-linejoin="miter" stroke="rgb(75%, 75%, 75%)" stroke-opacity="1" stroke-miterlimit="10" d="M -44.238656 -13.727187 L -44.238656 10.655625 L -22.117563 -0.76625 " transform="matrix(1, 0, 0, -1, 115.266, 110.515)"/>
<path fill="none" stroke-width="0.3985" stroke-linecap="butt" stroke-linejoin="miter" stroke="rgb(75%, 75%, 75%)" stroke-opacity="1" stroke-miterlimit="10" d="M -44.238656 10.655625 L -44.238656 35.038438 L -22.117563 23.612656 " transform="matrix(1, 0, 0, -1, 115.266, 110.515)"/>
<path fill="none" stroke-width="0.3985" stroke-linecap="butt" stroke-linejoin="miter" stroke="rgb(75%, 75%, 75%)" stroke-opacity="1" stroke-miterlimit="10" d="M -44.238656 35.038438 L -44.238656 59.417344 L -22.117563 47.995469 " transform="matrix(1, 0, 0, -1, 115.266, 110.515)"/>
<path fill="none" stroke-width="0.3985" stroke-linecap="butt" stroke-linejoin="miter" stroke="rgb(75%, 75%, 75%)" stroke-opacity="1" stroke-miterlimit="10" d="M -44.238656 59.417344 L -44.238656 83.800156 L -22.117563 72.378281 " transform="matrix(1, 0, 0, -1, 115.266, 110.515)"/>
<path fill="none" stroke-width="0.3985" stroke-linecap="butt" stroke-linejoin="miter" stroke="rgb(75%, 75%, 75%)" stroke-opacity="1" stroke-miterlimit="10" d="M -22.117563 -49.531875 L -22.117563 -25.149062 L -0.000375 -36.570937 " transform="matrix(1, 0, 0, -1, 115.266, 110.515)"/>
<path fill="none" stroke-width="0.3985" stroke-linecap="butt" stroke-linejoin="miter" stroke="rgb(75%, 75%, 75%)" stroke-opacity="1" stroke-miterlimit="10" d="M -22.117563 -25.149062 L -22.117563 -0.76625 L -0.000375 -12.192031 " transform="matrix(1, 0, 0, -1, 115.266, 110.515)"/>
<path fill="none" stroke-width="0.3985" stroke-linecap="butt" stroke-linejoin="miter" stroke="rgb(75%, 75%, 75%)" stroke-opacity="1" stroke-miterlimit="10" d="M -22.117563 -0.76625 L -22.117563 23.612656 L -0.000375 12.190781 " transform="matrix(1, 0, 0, -1, 115.266, 110.515)"/>
<path fill="none" stroke-width="0.3985" stroke-linecap="butt" stroke-linejoin="miter" stroke="rgb(75%, 75%, 75%)" stroke-opacity="1" stroke-miterlimit="10" d="M -22.117563 23.612656 L -22.117563 47.995469 L -0.000375 36.573594 " transform="matrix(1, 0, 0, -1, 115.266, 110.515)"/>
<path fill="none" stroke-width="0.3985" stroke-linecap="butt" stroke-linejoin="miter" stroke="rgb(75%, 75%, 75%)" stroke-opacity="1" stroke-miterlimit="10" d="M -22.117563 47.995469 L -22.117563 72.378281 L -0.000375 60.9525 " transform="matrix(1, 0, 0, -1, 115.266, 110.515)"/>
<path fill="none" stroke-width="0.3985" stroke-linecap="butt" stroke-linejoin="miter" stroke="rgb(75%, 75%, 75%)" stroke-opacity="1" stroke-miterlimit="10" d="M -0.000375 -60.95375 L -0.000375 -36.570937 L 22.120719 -47.996719 " transform="matrix(1, 0, 0, -1, 115.266, 110.515)"/>
<path fill="none" stroke-width="0.3985" stroke-linecap="butt" stroke-linejoin="miter" stroke="rgb(75%, 75%, 75%)" stroke-opacity="1" stroke-miterlimit="10" d="M -0.000375 -36.570937 L -0.000375 -12.192031 L 22.120719 -23.613906 " transform="matrix(1, 0, 0, -1, 115.266, 110.515)"/>
<path fill="none" stroke-width="0.3985" stroke-linecap="butt" stroke-linejoin="miter" stroke="rgb(75%, 75%, 75%)" stroke-opacity="1" stroke-miterlimit="10" d="M -0.000375 -12.192031 L -0.000375 12.190781 L 22.120719 0.768906 " transform="matrix(1, 0, 0, -1, 115.266, 110.515)"/>
<path fill="none" stroke-width="0.3985" stroke-linecap="butt" stroke-linejoin="miter" stroke="rgb(75%, 75%, 75%)" stroke-opacity="1" stroke-miterlimit="10" d="M -0.000375 12.190781 L -0.000375 36.573594 L 22.120719 25.147813 " transform="matrix(1, 0, 0, -1, 115.266, 110.515)"/>
<path fill="none" stroke-width="0.3985" stroke-linecap="butt" stroke-linejoin="miter" stroke="rgb(75%, 75%, 75%)" stroke-opacity="1" stroke-miterlimit="10" d="M -0.000375 36.573594 L -0.000375 60.9525 L 22.120719 49.530625 " transform="matrix(1, 0, 0, -1, 115.266, 110.515)"/>
<path fill="none" stroke-width="0.3985" stroke-linecap="butt" stroke-linejoin="miter" stroke="rgb(75%, 75%, 75%)" stroke-opacity="1" stroke-miterlimit="10" d="M 22.120719 -72.375625 L 22.120719 -47.996719 L 44.237906 -59.418594 " transform="matrix(1, 0, 0, -1, 115.266, 110.515)"/>
<path fill="none" stroke-width="0.3985" stroke-linecap="butt" stroke-linejoin="miter" stroke="rgb(75%, 75%, 75%)" stroke-opacity="1" stroke-miterlimit="10" d="M 22.120719 -47.996719 L 22.120719 -23.613906 L 44.237906 -35.035781 " transform="matrix(1, 0, 0, -1, 115.266, 110.515)"/>
<path fill="none" stroke-width="0.3985" stroke-linecap="butt" stroke-linejoin="miter" stroke="rgb(75%, 75%, 75%)" stroke-opacity="1" stroke-miterlimit="10" d="M 22.120719 -23.613906 L 22.120719 0.768906 L 44.237906 -10.656875 " transform="matrix(1, 0, 0, -1, 115.266, 110.515)"/>
<path fill="none" stroke-width="0.3985" stroke-linecap="butt" stroke-linejoin="miter" stroke="rgb(75%, 75%, 75%)" stroke-opacity="1" stroke-miterlimit="10" d="M 22.120719 0.768906 L 22.120719 25.147813 L 44.237906 13.725938 " transform="matrix(1, 0, 0, -1, 115.266, 110.515)"/>
<path fill="none" stroke-width="0.3985" stroke-linecap="butt" stroke-linejoin="miter" stroke="rgb(75%, 75%, 75%)" stroke-opacity="1" stroke-miterlimit="10" d="M 22.120719 25.147813 L 22.120719 49.530625 L 44.237906 38.10875 " transform="matrix(1, 0, 0, -1, 115.266, 110.515)"/>
<path fill="none" stroke-width="0.3985" stroke-linecap="butt" stroke-linejoin="miter" stroke="rgb(75%, 75%, 75%)" stroke-opacity="1" stroke-miterlimit="10" d="M 44.237906 -83.801406 L 44.237906 -59.418594 L 66.355094 -70.840469 " transform="matrix(1, 0, 0, -1, 115.266, 110.515)"/>
<path fill="none" stroke-width="0.3985" stroke-linecap="butt" stroke-linejoin="miter" stroke="rgb(75%, 75%, 75%)" stroke-opacity="1" stroke-miterlimit="10" d="M 44.237906 -59.418594 L 44.237906 -35.035781 L 66.355094 -46.461562 " transform="matrix(1, 0, 0, -1, 115.266, 110.515)"/>
<path fill="none" stroke-width="0.3985" stroke-linecap="butt" stroke-linejoin="miter" stroke="rgb(75%, 75%, 75%)" stroke-opacity="1" stroke-miterlimit="10" d="M 44.237906 -35.035781 L 44.237906 -10.656875 L 66.355094 -22.07875 " transform="matrix(1, 0, 0, -1, 115.266, 110.515)"/>
<path fill="none" stroke-width="0.3985" stroke-linecap="butt" stroke-linejoin="miter" stroke="rgb(75%, 75%, 75%)" stroke-opacity="1" stroke-miterlimit="10" d="M 44.237906 -10.656875 L 44.237906 13.725938 L 66.355094 2.304063 " transform="matrix(1, 0, 0, -1, 115.266, 110.515)"/>
<path fill="none" stroke-width="0.3985" stroke-linecap="butt" stroke-linejoin="miter" stroke="rgb(75%, 75%, 75%)" stroke-opacity="1" stroke-miterlimit="10" d="M 44.237906 13.725938 L 44.237906 38.10875 L 66.355094 26.682969 " transform="matrix(1, 0, 0, -1, 115.266, 110.515)"/>
<g clip-path="url(#clip-0)">
<path fill="none" stroke-width="0.3985" stroke-linecap="butt" stroke-linejoin="miter" stroke="rgb(0%, 0%, 0%)" stroke-opacity="1" stroke-miterlimit="10" d="M -66.363656 -26.680312 L 66.355094 -95.223281 L 66.355094 26.682969 " transform="matrix(1, 0, 0, -1, 115.266, 110.515)"/>
</g>
<g fill="rgb(0%, 0%, 0%)" fill-opacity="1">
<use xlink:href="#glyph-0-0" x="93.5" y="182.771"/>
</g>
<g fill="rgb(0%, 0%, 0%)" fill-opacity="1">
<use xlink:href="#glyph-1-0" x="101.965" y="184.985"/>
</g>
<g fill="rgb(0%, 0%, 0%)" fill-opacity="1">
<use xlink:href="#glyph-0-1" x="107.982" y="182.771"/>
</g>
<g fill="rgb(0%, 0%, 0%)" fill-opacity="1">
<use xlink:href="#glyph-0-2" x="118.589228" y="182.771"/>
</g>
<g fill="rgb(0%, 0%, 0%)" fill-opacity="1">
<use xlink:href="#glyph-0-3" x="184.81" y="146.739"/>
</g>
<g fill="rgb(0%, 0%, 0%)" fill-opacity="1">
<use xlink:href="#glyph-1-0" x="192.261" y="148.953"/>
</g>
<path fill="none" stroke-width="0.79701" stroke-linecap="round" stroke-linejoin="miter" stroke="rgb(50%, 0%, 0%)" stroke-opacity="1" stroke-miterlimit="10" d="M -0.000375 -0.000625 L 41.023062 -21.184219 " transform="matrix(1, 0, 0, -1, 115.266, 110.515)"/>
<path fill-rule="nonzero" fill="rgb(50%, 0%, 0%)" fill-opacity="1" stroke-width="0.79701" stroke-linecap="round" stroke-linejoin="miter" stroke="rgb(50%, 0%, 0%)" stroke-opacity="1" stroke-miterlimit="10" d="M 4.718509 -0.000561129 L 1.43512 1.104383 L 2.555528 -0.000894599 L 1.437817 -1.105741 Z M 4.718509 -0.000561129 " transform="matrix(0.88846, 0.45885, 0.45885, -0.88846, 154.19477, 130.61957)"/>
<g fill="rgb(50%, 0%, 0%)" fill-opacity="1">
<use xlink:href="#glyph-0-4" x="160.9" y="134.207"/>
</g>
<g fill="rgb(50%, 0%, 0%)" fill-opacity="1">
<use xlink:href="#glyph-1-1" x="165.078" y="136.421"/>
</g>
<path fill="none" stroke-width="0.79701" stroke-linecap="round" stroke-linejoin="miter" stroke="rgb(0%, 50%, 0%)" stroke-opacity="1" stroke-miterlimit="10" d="M -0.000375 -0.000625 L -0.000375 45.143906 " transform="matrix(1, 0, 0, -1, 115.266, 110.515)"/>
<path fill-rule="nonzero" fill="rgb(0%, 50%, 0%)" fill-opacity="1" stroke-width="0.79701" stroke-linecap="round" stroke-linejoin="miter" stroke="rgb(0%, 50%, 0%)" stroke-opacity="1" stroke-miterlimit="10" d="M 4.715741 0.000375 L 1.434491 1.105844 L 2.555585 0.000375 L 1.434491 -1.105094 Z M 4.715741 0.000375 " transform="matrix(0, -1, -1, 0, 115.266, 67.72746)"/>
<g fill="rgb(0%, 50%, 0%)" fill-opacity="1">
<use xlink:href="#glyph-0-4" x="111.196" y="56.922"/>
</g>
<g fill="rgb(0%, 50%, 0%)" fill-opacity="1">
<use xlink:href="#glyph-1-2" x="115.374" y="59.137"/>
</g>
<path fill="none" stroke-width="0.79701" stroke-linecap="round" stroke-linejoin="miter" stroke="rgb(0%, 0%, 50%)" stroke-opacity="1" stroke-miterlimit="10" d="M -0.000375 -0.000625 L 36.780875 23.429063 " transform="matrix(1, 0, 0, -1, 115.266, 110.515)"/>
<path fill-rule="nonzero" fill="rgb(0%, 0%, 50%)" fill-opacity="1" stroke-width="0.79701" stroke-linecap="round" stroke-linejoin="miter" stroke="rgb(0%, 0%, 50%)" stroke-opacity="1" stroke-miterlimit="10" d="M 4.719603 -0.0000575786 L 1.435756 1.10521 L 2.555502 -0.00176812 L 1.436247 -1.104431 Z M 4.719603 -0.0000575786 " transform="matrix(0.84337, -0.53723, -0.53723, -0.84337, 150.05866, 88.35187)"/>
<g fill="rgb(0%, 0%, 50%)" fill-opacity="1">
<use xlink:href="#glyph-0-4" x="156.494" y="83.993"/>
</g>
<g fill="rgb(0%, 0%, 50%)" fill-opacity="1">
<use xlink:href="#glyph-1-3" x="160.673" y="86.207"/>
</g>
<path fill="none" stroke-width="0.3985" stroke-linecap="butt" stroke-linejoin="miter" stroke="rgb(0%, 0%, 0%)" stroke-opacity="1" stroke-miterlimit="10" d="M -98.17225 -63.434219 C -98.17225 -62.656875 -98.801156 -62.024062 -99.582406 -62.024062 C -100.35975 -62.024062 -100.988656 -62.656875 -100.988656 -63.434219 C -100.988656 -64.211562 -100.35975 -64.840469 -99.582406 -64.840469 C -98.801156 -64.840469 -98.17225 -64.211562 -98.17225 -63.434219 Z M -98.17225 -63.434219 " transform="matrix(1, 0, 0, -1, 115.266, 110.515)"/>
<path fill="none" stroke-width="0.19925" stroke-linecap="butt" stroke-linejoin="miter" stroke="rgb(0%, 0%, 0%)" stroke-opacity="1" stroke-dasharray="2.98883 2.98883" stroke-miterlimit="10" d="M -0.000375 -0.000625 L -98.226938 -62.570937 " transform="matrix(1, 0, 0, -1, 115.266, 110.515)"/>
<g fill="rgb(0%, 0%, 0%)" fill-opacity="1">
<use xlink:href="#glyph-0-5" x="5.977" y="174.01"/>
</g>
<g fill="rgb(0%, 0%, 0%)" fill-opacity="1">
<use xlink:href="#glyph-0-6" x="63.956" y="136.875"/>
</g>
<path fill="none" stroke-width="0.3985" stroke-linecap="butt" stroke-linejoin="miter" stroke="rgb(0%, 0%, 0%)" stroke-opacity="1" stroke-miterlimit="10" d="M -64.949594 95.225938 C -64.949594 96.007188 -65.582406 96.636094 -66.35975 96.636094 C -67.137094 96.636094 -67.769906 96.007188 -67.769906 95.225938 C -67.769906 94.448594 -67.137094 93.819688 -66.35975 93.819688 C -65.582406 93.819688 -64.949594 94.448594 -64.949594 95.225938 Z M -64.949594 95.225938 " transform="matrix(1, 0, 0, -1, 115.266, 110.515)"/>
<g fill="rgb(0%, 0%, 0%)" fill-opacity="1">
<use xlink:href="#glyph-0-7" x="46.935" y="12.101"/>
</g>
<path fill="none" stroke-width="0.3985" stroke-linecap="butt" stroke-linejoin="miter" stroke="rgb(0%, 0%, 0%)" stroke-opacity="1" stroke-miterlimit="10" d="M -66.35975 95.225938 L -66.35975 50.265 " transform="matrix(1, 0, 0, -1, 115.266, 110.515)"/>
<path fill-rule="nonzero" fill="rgb(0%, 0%, 0%)" fill-opacity="1" stroke-width="0.3985" stroke-linecap="butt" stroke-linejoin="miter" stroke="rgb(0%, 0%, 0%)" stroke-opacity="1" stroke-miterlimit="10" d="M 5.346935 -0.00024 L 0.718029 1.550541 L 2.272716 -0.00024 L 0.718029 -1.547115 Z M 5.346935 -0.00024 " transform="matrix(0, 1, 1, 0, 48.90649, 58.07494)"/>
<g fill="rgb(0%, 0%, 0%)" fill-opacity="1">
<use xlink:href="#glyph-0-8" x="39.07" y="41.497"/>
</g>
<g fill="rgb(0%, 0%, 0%)" fill-opacity="1">
<use xlink:href="#glyph-1-4" x="42.163" y="43.712"/>
</g>
<path fill="none" stroke-width="0.3985" stroke-linecap="butt" stroke-linejoin="miter" stroke="rgb(0%, 0%, 0%)" stroke-opacity="1" stroke-miterlimit="10" d="M -66.35975 95.225938 L -25.500375 74.124375 " transform="matrix(1, 0, 0, -1, 115.266, 110.515)"/>
<path fill-rule="nonzero" fill="rgb(0%, 0%, 0%)" fill-opacity="1" stroke-width="0.3985" stroke-linecap="butt" stroke-linejoin="miter" stroke="rgb(0%, 0%, 0%)" stroke-opacity="1" stroke-miterlimit="10" d="M 5.348063 -0.00194459 L 0.717007 1.550119 L 2.273014 0.00151813 L 0.717358 -1.54934 Z M 5.348063 -0.00194459 " transform="matrix(0.88846, 0.45885, 0.45885, -0.88846, 87.83529, 35.39197)"/>
<g fill="rgb(0%, 0%, 0%)" fill-opacity="1">
<use xlink:href="#glyph-0-8" x="67.645" y="21.25"/>
</g>
<g fill="rgb(0%, 0%, 0%)" fill-opacity="1">
<use xlink:href="#glyph-1-5" x="70.739" y="23.465"/>
</g>
<path fill="none" stroke-width="0.3985" stroke-linecap="butt" stroke-linejoin="miter" stroke="rgb(0%, 0%, 0%)" stroke-opacity="1" stroke-miterlimit="10" d="M -9.652719 -43.051406 C -9.652719 -42.274062 -10.281625 -41.645156 -11.058969 -41.645156 C -11.836313 -41.645156 -12.469125 -42.274062 -12.469125 -43.051406 C -12.469125 -43.832656 -11.836313 -44.461562 -11.058969 -44.461562 C -10.281625 -44.461562 -9.652719 -43.832656 -9.652719 -43.051406 Z M -9.652719 -43.051406 " transform="matrix(1, 0, 0, -1, 115.266, 110.515)"/>
<g fill="rgb(0%, 0%, 0%)" fill-opacity="1">
<use xlink:href="#glyph-0-9" x="107.394" y="158.846"/>
</g>
<g fill="rgb(0%, 0%, 0%)" fill-opacity="1">
<use xlink:href="#glyph-1-5" x="111.904" y="161.061"/>
</g>
<g fill="rgb(0%, 0%, 0%)" fill-opacity="1">
<use xlink:href="#glyph-1-6" x="115.131893" y="161.061"/>
<use xlink:href="#glyph-1-4" x="117.158293" y="161.061"/>
</g>
<path fill="none" stroke-width="0.3985" stroke-linecap="butt" stroke-linejoin="miter" stroke="rgb(0%, 0%, 0%)" stroke-opacity="1" stroke-miterlimit="10" d="M -98.016 -63.074844 L -53.980844 -52.938125 " transform="matrix(1, 0, 0, -1, 115.266, 110.515)"/>
<path fill-rule="nonzero" fill="rgb(0%, 0%, 0%)" fill-opacity="1" stroke-width="0.3985" stroke-linecap="butt" stroke-linejoin="miter" stroke="rgb(0%, 0%, 0%)" stroke-opacity="1" stroke-miterlimit="10" d="M 5.347123 0.000167167 L 0.717455 1.550815 L 2.273072 0.00222924 L 0.717749 -1.547829 Z M 5.347123 0.000167167 " transform="matrix(0.97449, -0.2243, -0.2243, -0.97449, 59.16432, 163.94171)"/>
<g fill="rgb(0%, 0%, 0%)" fill-opacity="1">
<use xlink:href="#glyph-0-10" x="37.069" y="175.246"/>
</g>
<g fill="rgb(0%, 0%, 0%)" fill-opacity="1">
<use xlink:href="#glyph-1-7" x="41.113" y="177.46"/>
</g>
<path fill="none" stroke-width="0.19925" stroke-linecap="butt" stroke-linejoin="miter" stroke="rgb(0%, 0%, 0%)" stroke-opacity="1" stroke-dasharray="2.98883 2.98883" stroke-miterlimit="10" d="M -98.016 -63.074844 L 0.00353125 -40.508437 " transform="matrix(1, 0, 0, -1, 115.266, 110.515)"/>
<g clip-path="url(#clip-1)">
<path fill="none" stroke-width="0.19925" stroke-linecap="butt" stroke-linejoin="miter" stroke="rgb(0%, 0%, 0%)" stroke-opacity="1" stroke-dasharray="2.98883 2.98883" stroke-miterlimit="10" d="M -66.35975 95.225938 L 66.355094 -95.223281 " transform="matrix(1, 0, 0, -1, 115.266, 110.515)"/>
</g>
<path fill="none" stroke-width="0.09962" stroke-linecap="butt" stroke-linejoin="miter" stroke="rgb(75%, 75%, 75%)" stroke-opacity="1" stroke-miterlimit="10" d="M -66.35975 95.225938 L -99.254281 -61.863906 " transform="matrix(1, 0, 0, -1, 115.266, 110.515)"/>
<path fill="none" stroke-width="0.09962" stroke-linecap="butt" stroke-linejoin="miter" stroke="rgb(75%, 75%, 75%)" stroke-opacity="1" stroke-miterlimit="10" d="M -66.363656 -26.680312 L -98.508188 -62.242812 " transform="matrix(1, 0, 0, -1, 115.266, 110.515)"/>
<path fill="none" stroke-width="0.09962" stroke-linecap="butt" stroke-linejoin="miter" stroke="rgb(75%, 75%, 75%)" stroke-opacity="1" stroke-miterlimit="10" d="M 66.355094 -95.223281 L -98.004281 -63.738906 " transform="matrix(1, 0, 0, -1, 115.266, 110.515)"/>
<path fill="none" stroke-width="0.09962" stroke-linecap="butt" stroke-linejoin="miter" stroke="rgb(75%, 75%, 75%)" stroke-opacity="1" stroke-miterlimit="10" d="M 66.355094 26.690781 L -98.17225 -62.668594 " transform="matrix(1, 0, 0, -1, 115.266, 110.515)"/>
<path fill="none" stroke-width="0.3985" stroke-linecap="butt" stroke-linejoin="miter" stroke="rgb(0%, 0%, 0%)" stroke-opacity="1" stroke-miterlimit="10" d="M -85.660531 -66.098281 C -84.207406 -58.504531 -89.10975 -51.145156 -96.676156 -49.563125 " transform="matrix(1, 0, 0, -1, 115.266, 110.515)"/>
<g fill="rgb(0%, 0%, 0%)" fill-opacity="1">
<use xlink:href="#glyph-0-11" x="22.855" y="159.129"/>
</g>
</svg>
